Analysis-R.R
…
#groupwise Language wise sum of runtime
Name=Dataset %>% group_by(Language) %>% summarise(Run=sum(Runtime)) %>% arrange((desc(Run)))
View(Name)

#groupwise Language wise sum of IMDB.Score
idb=Dataset %>% group_by(Language) %>% summarise(Run=max(IMDB.Score)) %>% arrange((desc(Run)))
print(idb)

## # A tibble: 38 x 2
##    Language                   Run
##    <chr>                    <dbl>
##  1 English                    9  
##  2 Portuguese                 8.6
##  3 English/Ukranian/Russian   8.4
##  4 Spanish                    8.2
##  5 English/Akan               7.7
##  6 Hindi                      7.6
##  7 Korean                     7.5
##  8 English/Hindi              7.4
##  9 English/Arabic             7.3
## 10 English/Korean             7.3
## # ... with 28 more rows
…
View(head(Name1))
#Title wise groupby of IMDB.Score
ID=Dataset%>%group_by(Genre)%>%summarise(idb=max(IMDB.Score))%>% arrange((desc(idb)))
ID

## # A tibble: 115 x 2
##    Genre                                  idb
##    <chr>                                <dbl>
##  1 Documentary                            9  
##  2 One-man show                           8.5
##  3 Concert Film                           8.4
##  4 Animation/Christmas/Comedy/Adventure   8.2
##  5 Drama                                  7.9
##  6 Animation / Short                      7.8
##  7 Crime drama                            7.8
##  8 Making-of                              7.7
##  9 Musical / Short                        7.7
## 10 War drama                              7.7
## # ... with 105 more rows
…
